<svg width="20" height="51" viewBox="0 0 20 51" fill="none" xmlns="http://www.w3.org/2000/svg">
<path d="M1.2141 30.8367C2.14614 25.9081 5.9835 7 10 7C14.0165 7 17.8539 25.9081 18.7859 30.8367C18.9013 31.4472 18.4308 32 17.8095 32H10H2.19051C1.56918 32 1.09865 31.4472 1.2141 30.8367Z" fill="url(#paint0_linear)" stroke="black"/>
<path d="M11.4203 5.73696L12.959 10.2676C13.2894 11.2405 12.5661 12.25 11.5387 12.25H8.4613C7.4339 12.25 6.71059 11.2405 7.04098 10.2676L8.57968 5.73695C9.04048 4.38011 10.9595 4.38011 11.4203 5.73696Z" fill="#EE2012" stroke="black"/>
<path d="M0 32C0 31.4477 0.447715 31 1 31H19C19.5523 31 20 31.4477 20 32V51H0V32Z" fill="url(#paint1_linear)"/>
<path d="M1 31.5H19C19.2761 31.5 19.5 31.7239 19.5 32V50.5H0.5V32C0.5 31.7239 0.723858 31.5 1 31.5Z" stroke="black" stroke-opacity="0.99"/>
<defs>
<linearGradient id="paint0_linear" x1="3.5" y1="21" x2="17" y2="21" gradientUnits="userSpaceOnUse">
<stop stop-color="#C4C4C4"/>
<stop offset="0.5" stop-color="#FCFCFC"/>
<stop offset="1" stop-color="#BFBFBF"/>
</linearGradient>
<linearGradient id="paint1_linear" x1="1.94046e-07" y1="41.6667" x2="20" y2="41.6667" gradientUnits="userSpaceOnUse">
<stop stop-color="#F00E00"/>
<stop offset="0.5" stop-color="#FF7F77"/>
<stop offset="1" stop-color="#EC2D20"/>
</linearGradient>
</defs>
</svg>
