<svg width="21" height="23" viewBox="0 0 21 23" fill="none" xmlns="http://www.w3.org/2000/svg">
<path d="M6.41418 9.16281C15.1499 -4.28575 29.2616 11.6078 9.10211 22" stroke="#111111" stroke-width="1.8" stroke-linejoin="round"/>
<path d="M5.09997 9.41421C5.09997 9.91127 5.50291 10.3142 5.99997 10.3142H14.1C14.597 10.3142 15 9.91127 15 9.41421C15 8.91716 14.597 8.51421 14.1 8.51421H6.89997V1.31421C6.89997 0.817158 6.49703 0.414214 5.99997 0.414214C5.50291 0.414214 5.09997 0.817158 5.09997 1.31421V9.41421ZM6.77779 7.3636L5.36357 8.77782L6.63637 10.0506L8.05058 8.6364L6.77779 7.3636Z" fill="#111111"/>
</svg>
